{"failedCount":0,"prefixedPath":"classpath:examples\/users\/getcalldemo.feature","packageQualifiedName":"examples.users.getcalldemo","loopIndex":-1,"relativePath":"examples\/users\/getcalldemo.feature","scenarioResults":[{"sectionIndex":0,"stepResults":[{"result":{"nanos":2355500,"millis":2.3555,"status":"passed"},"step":{"background":true,"line":5,"prefix":"*","index":0,"text":"url 'https:\/\/reqres.in\/api\/'"},"stepLog":"20:51:04.413 karate.env system property was: null \n"},{"result":{"nanos":758400,"millis":0.7584,"status":"passed"},"step":{"line":8,"prefix":"Given","index":0,"text":"path 'users\/3'"}},{"result":{"nanos":1244296200,"millis":1244.2962,"status":"passed"},"step":{"line":9,"prefix":"When","index":1,"text":"method get"},"stepLog":"20:51:05.022 request:\n1 > GET https:\/\/reqres.in\/api\/users\/3\n1 > Host: reqres.in\n1 > Connection: Keep-Alive\n1 > User-Agent: Apache-HttpClient\/4.5.13 (Java\/1.8.0_301)\n1 > Accept-Encoding: gzip,deflate\n\n\n20:51:05.701 response time in milliseconds: 678\n1 < 200\n1 < Date: Mon, 30 Aug 2021 15:21:05 GMT\n1 < Content-Type: application\/json; charset=utf-8\n1 < Transfer-Encoding: chunked\n1 < Connection: keep-alive\n1 < x-powered-by: Express\n1 < access-control-allow-origin: *\n1 < etag: W\/\"112-EeInfgHWtnxhYRnwgZUB667e024\"\n1 < via: 1.1 vegur\n1 < Cache-Control: max-age=14400\n1 < CF-Cache-Status: HIT\n1 < Age: 1766\n1 < Expect-CT: max-age=604800, report-uri=\"https:\/\/report-uri.cloudflare.com\/cdn-cgi\/beacon\/expect-ct\"\n1 < Report-To: {\"endpoints\":[{\"url\":\"https:\\\/\\\/a.nel.cloudflare.com\\\/report\\\/v3?s=WQIf%2BLMf%2FToBVbStSGw9cw%2FGHPFO0kZjycXXyLSu98UoZmHz5HrMPI6S2qwjTYGoKbTZduIfn0OvStFEkuady4%2BclAMIzAw3SYRYKC2bLSTZYZ%2BJpCxWXBlRQhk%3D\"}],\"group\":\"cf-nel\",\"max_age\":604800}\n1 < NEL: {\"success_fraction\":0,\"report_to\":\"cf-nel\",\"max_age\":604800}\n1 < Vary: Accept-Encoding\n1 < Server: cloudflare\n1 < CF-RAY: 686f01c04ee131ca-BOM\n1 < alt-svc: h3-27=\":443\"; ma=86400, h3-28=\":443\"; ma=86400, h3-29=\":443\"; ma=86400, h3=\":443\"; ma=86400\n{\"data\":{\"id\":3,\"email\":\"emma.wong@reqres.in\",\"first_name\":\"Emma\",\"last_name\":\"Wong\",\"avatar\":\"https:\/\/reqres.in\/img\/faces\/3-image.jpg\"},\"support\":{\"url\":\"https:\/\/reqres.in\/#support-heading\",\"text\":\"To keep ReqRes free, contributions towards server costs are appreciated!\"}}\n"},{"result":{"nanos":18300,"millis":0.0183,"status":"passed"},"step":{"line":10,"prefix":"Then","index":2,"text":"status 200"}}],"executorName":"pool-1-thread-2","line":7,"name":"Get the details of user 3","description":"","durationMillis":1247.4284,"startTime":1630336864253,"failed":false,"refId":"[1:7]","endTime":1630336865709,"exampleIndex":-1},{"sectionIndex":1,"stepResults":[{"result":{"nanos":2827300,"millis":2.8273,"status":"passed"},"step":{"background":true,"line":5,"prefix":"*","index":0,"text":"url 'https:\/\/reqres.in\/api\/'"},"stepLog":"20:51:04.413 karate.env system property was: null \n"},{"result":{"nanos":45018000,"millis":45.018,"status":"passed"},"step":{"endLine":19,"line":13,"prefix":"*","docString":"{\n    \"name\": \"morpheus\",\n    \"job\": \"leader\"\n}","index":0,"text":"def user ="}},{"result":{"nanos":676900,"millis":0.6769,"status":"passed"},"step":{"line":20,"prefix":"Given","index":1,"text":"path 'users'"}},{"result":{"nanos":5693000,"millis":5.693,"status":"passed"},"step":{"line":21,"prefix":"And","index":2,"text":"request user"}},{"result":{"nanos":1562414500,"millis":1562.4145,"status":"passed"},"step":{"line":22,"prefix":"When","index":3,"text":"method post"},"stepLog":"20:51:05.022 request:\n1 > POST https:\/\/reqres.in\/api\/users\n1 > Content-Type: application\/json; charset=UTF-8\n1 > Content-Length: 34\n1 > Host: reqres.in\n1 > Connection: Keep-Alive\n1 > User-Agent: Apache-HttpClient\/4.5.13 (Java\/1.8.0_301)\n1 > Accept-Encoding: gzip,deflate\n{\"name\":\"morpheus\",\"job\":\"leader\"}\n\n20:51:06.077 response time in milliseconds: 1055\n1 < 201\n1 < Date: Mon, 30 Aug 2021 15:21:05 GMT\n1 < Content-Type: application\/json; charset=utf-8\n1 < Content-Length: 84\n1 < Connection: keep-alive\n1 < x-powered-by: Express\n1 < access-control-allow-origin: *\n1 < etag: W\/\"54-VybOqp+Frh1qlf4jMu4SzsDxTbs\"\n1 < via: 1.1 vegur\n1 < CF-Cache-Status: DYNAMIC\n1 < Expect-CT: max-age=604800, report-uri=\"https:\/\/report-uri.cloudflare.com\/cdn-cgi\/beacon\/expect-ct\"\n1 < Report-To: {\"endpoints\":[{\"url\":\"https:\\\/\\\/a.nel.cloudflare.com\\\/report\\\/v3?s=krIifplGGp1R82%2FEKii5JpO675lnyKNRTbdQoLAayIMlna%2F3huykg%2BfoMZ%2BPHwaaWWnMEmVdBajCEEAutQinFHzb0WXRyKG%2Fqoujd7aWwAkym5ZhP18HsER8HmQ%3D\"}],\"group\":\"cf-nel\",\"max_age\":604800}\n1 < NEL: {\"success_fraction\":0,\"report_to\":\"cf-nel\",\"max_age\":604800}\n1 < Server: cloudflare\n1 < CF-RAY: 686f01c05cd70f04-BOM\n1 < alt-svc: h3-27=\":443\"; ma=86400, h3-28=\":443\"; ma=86400, h3-29=\":443\"; ma=86400, h3=\":443\"; ma=86400\n{\"name\":\"morpheus\",\"job\":\"leader\",\"id\":\"612\",\"createdAt\":\"2021-08-30T15:21:05.635Z\"}\n"},{"result":{"nanos":6700,"millis":0.0067,"status":"passed"},"step":{"line":23,"prefix":"Then","index":4,"text":"status 201"}}],"executorName":"pool-1-thread-3","line":12,"name":"Create an user","description":"","durationMillis":1616.6364,"startTime":1630336864253,"failed":false,"refId":"[2:12]","endTime":1630336866078,"exampleIndex":-1},{"sectionIndex":2,"stepResults":[{"result":{"nanos":3708000,"millis":3.708,"status":"passed"},"step":{"background":true,"line":5,"prefix":"*","index":0,"text":"url 'https:\/\/reqres.in\/api\/'"},"stepLog":"20:51:04.413 karate.env system property was: null \n"},{"result":{"nanos":45020100,"millis":45.0201,"status":"passed"},"step":{"endLine":32,"line":26,"prefix":"*","docString":"{\n    \"name\": \"Johnny Sins\",\n    \"job\": \"Porn star\"\n}","index":0,"text":"def user2 ="}},{"result":{"nanos":676800,"millis":0.6768,"status":"passed"},"step":{"line":33,"prefix":"Given","index":1,"text":"path 'users'"}},{"result":{"nanos":5687700,"millis":5.6877,"status":"passed"},"step":{"line":34,"prefix":"And","index":2,"text":"request user2"}},{"result":{"nanos":1549071600,"millis":1549.0716,"status":"passed"},"step":{"line":35,"prefix":"When","index":3,"text":"method post"},"stepLog":"20:51:05.022 request:\n1 > POST https:\/\/reqres.in\/api\/users\n1 > Content-Type: application\/json; charset=UTF-8\n1 > Content-Length: 40\n1 > Host: reqres.in\n1 > Connection: Keep-Alive\n1 > User-Agent: Apache-HttpClient\/4.5.13 (Java\/1.8.0_301)\n1 > Accept-Encoding: gzip,deflate\n{\"name\":\"Johnny Sins\",\"job\":\"Porn star\"}\n\n20:51:06.064 response time in milliseconds: 1041\n1 < 201\n1 < Date: Mon, 30 Aug 2021 15:21:05 GMT\n1 < Content-Type: application\/json; charset=utf-8\n1 < Content-Length: 90\n1 < Connection: keep-alive\n1 < x-powered-by: Express\n1 < access-control-allow-origin: *\n1 < etag: W\/\"5a-JiZSRmoQJd94SL54ON0ZtBnjmBw\"\n1 < via: 1.1 vegur\n1 < CF-Cache-Status: DYNAMIC\n1 < Expect-CT: max-age=604800, report-uri=\"https:\/\/report-uri.cloudflare.com\/cdn-cgi\/beacon\/expect-ct\"\n1 < Report-To: {\"endpoints\":[{\"url\":\"https:\\\/\\\/a.nel.cloudflare.com\\\/report\\\/v3?s=H2FRnlHXOluSKS0QfypcvBJ%2BDxB9xHNEqxBhmCKi6H80RLm%2F2if375oSgjLG%2Fv%2BxqUAjzJ1gc%2FACBPEoUd%2FzDrn6HnkWN52OPUy6WGYuJ2HJg4mXXNPwa8WK%2BEQ%3D\"}],\"group\":\"cf-nel\",\"max_age\":604800}\n1 < NEL: {\"success_fraction\":0,\"report_to\":\"cf-nel\",\"max_age\":604800}\n1 < Server: cloudflare\n1 < CF-RAY: 686f01c068265229-BOM\n1 < alt-svc: h3-27=\":443\"; ma=86400, h3-28=\":443\"; ma=86400, h3-29=\":443\"; ma=86400, h3=\":443\"; ma=86400\n{\"name\":\"Johnny Sins\",\"job\":\"Porn star\",\"id\":\"894\",\"createdAt\":\"2021-08-30T15:21:05.618Z\"}\n"},{"result":{"nanos":13400,"millis":0.0134,"status":"passed"},"step":{"line":36,"prefix":"Then","index":4,"text":"status 201"}},{"result":{"nanos":891600,"millis":0.8916,"status":"passed"},"step":{"line":37,"prefix":"Then","index":5,"text":"match response == \"#object\""}},{"result":{"nanos":934000,"millis":0.934,"status":"passed"},"step":{"line":38,"prefix":"Then","index":6,"text":"match response.name == \"Johnny Sins\""}}],"executorName":"pool-1-thread-4","line":25,"name":"Create another user","description":"","durationMillis":1606.0032,"startTime":1630336864253,"failed":false,"refId":"[3:25]","endTime":1630336866066,"exampleIndex":-1},{"sectionIndex":3,"stepResults":[{"result":{"nanos":2104000,"millis":2.104,"status":"passed"},"step":{"background":true,"line":5,"prefix":"*","index":0,"text":"url 'https:\/\/reqres.in\/api\/'"},"stepLog":"20:51:04.413 karate.env system property was: null \n"},{"result":{"nanos":758700,"millis":0.7587,"status":"passed"},"step":{"line":41,"prefix":"Given","index":0,"text":"path 'users\/'"}},{"result":{"nanos":1937600,"millis":1.9376,"status":"passed"},"step":{"line":42,"prefix":"And","index":1,"text":"param page = 2"}},{"result":{"nanos":1259193500,"millis":1259.1935,"status":"passed"},"step":{"line":43,"prefix":"When","index":2,"text":"method get"},"stepLog":"20:51:05.022 request:\n1 > GET https:\/\/reqres.in\/api\/users?page=2\n1 > Host: reqres.in\n1 > Connection: Keep-Alive\n1 > User-Agent: Apache-HttpClient\/4.5.13 (Java\/1.8.0_301)\n1 > Accept-Encoding: gzip,deflate\n\n\n20:51:05.723 response time in milliseconds: 700\n1 < 200\n1 < Date: Mon, 30 Aug 2021 15:21:05 GMT\n1 < Content-Type: application\/json; charset=utf-8\n1 < Transfer-Encoding: chunked\n1 < Connection: keep-alive\n1 < x-powered-by: Express\n1 < access-control-allow-origin: *\n1 < etag: W\/\"406-ut0vzoCuidvyMf8arZpMpJ6ZRDw\"\n1 < via: 1.1 vegur\n1 < Cache-Control: max-age=14400\n1 < CF-Cache-Status: HIT\n1 < Age: 6336\n1 < Expect-CT: max-age=604800, report-uri=\"https:\/\/report-uri.cloudflare.com\/cdn-cgi\/beacon\/expect-ct\"\n1 < Report-To: {\"endpoints\":[{\"url\":\"https:\\\/\\\/a.nel.cloudflare.com\\\/report\\\/v3?s=Blf7aphO2LadQxwSW8xpWeeZfvCVb7581VPSTOQrAVNRWeG6Ys%2BBVzyclcZFrQVp1NnON4SCQzZCuK%2FRg%2B0RSFmZtUCQIvD8u%2B0yw%2FkLr9jOlruvTdXKdm7cQeM%3D\"}],\"group\":\"cf-nel\",\"max_age\":604800}\n1 < NEL: {\"success_fraction\":0,\"report_to\":\"cf-nel\",\"max_age\":604800}\n1 < Vary: Accept-Encoding\n1 < Server: cloudflare\n1 < CF-RAY: 686f01c06fbc0e68-BOM\n1 < alt-svc: h3-27=\":443\"; ma=86400, h3-28=\":443\"; ma=86400, h3-29=\":443\"; ma=86400, h3=\":443\"; ma=86400\n{\"page\":2,\"per_page\":6,\"total\":12,\"total_pages\":2,\"data\":[{\"id\":7,\"email\":\"michael.lawson@reqres.in\",\"first_name\":\"Michael\",\"last_name\":\"Lawson\",\"avatar\":\"https:\/\/reqres.in\/img\/faces\/7-image.jpg\"},{\"id\":8,\"email\":\"lindsay.ferguson@reqres.in\",\"first_name\":\"Lindsay\",\"last_name\":\"Ferguson\",\"avatar\":\"https:\/\/reqres.in\/img\/faces\/8-image.jpg\"},{\"id\":9,\"email\":\"tobias.funke@reqres.in\",\"first_name\":\"Tobias\",\"last_name\":\"Funke\",\"avatar\":\"https:\/\/reqres.in\/img\/faces\/9-image.jpg\"},{\"id\":10,\"email\":\"byron.fields@reqres.in\",\"first_name\":\"Byron\",\"last_name\":\"Fields\",\"avatar\":\"https:\/\/reqres.in\/img\/faces\/10-image.jpg\"},{\"id\":11,\"email\":\"george.edwards@reqres.in\",\"first_name\":\"George\",\"last_name\":\"Edwards\",\"avatar\":\"https:\/\/reqres.in\/img\/faces\/11-image.jpg\"},{\"id\":12,\"email\":\"rachel.howell@reqres.in\",\"first_name\":\"Rachel\",\"last_name\":\"Howell\",\"avatar\":\"https:\/\/reqres.in\/img\/faces\/12-image.jpg\"}],\"support\":{\"url\":\"https:\/\/reqres.in\/#support-heading\",\"text\":\"To keep ReqRes free, contributions towards server costs are appreciated!\"}}\n"},{"result":{"nanos":16000,"millis":0.016,"status":"passed"},"step":{"line":44,"prefix":"Then","index":3,"text":"status 200"}},{"result":{"nanos":3237300,"millis":3.2373,"status":"passed"},"step":{"line":45,"prefix":"Then","index":4,"text":"match response == \"#object\""}},{"result":{"nanos":2791800,"millis":2.7918,"status":"passed"},"step":{"line":46,"prefix":"Then","index":5,"text":"match response.page == 2"}}],"executorName":"pool-1-thread-5","line":40,"name":"Get User details of id 2","description":"","durationMillis":1270.0389,"startTime":1630336864253,"failed":false,"refId":"[4:40]","endTime":1630336865734,"exampleIndex":-1}],"callDepth":0,"name":"Get the details of user 3","description":"","resultDate":"2021-08-30 08:51:06 PM","durationMillis":5740.1069,"passedCount":4}