{"failedCount":0,"prefixedPath":"classpath:examples\/users\/getcalldemo.feature","packageQualifiedName":"examples.users.getcalldemo","loopIndex":-1,"relativePath":"examples\/users\/getcalldemo.feature","scenarioResults":[{"sectionIndex":0,"stepResults":[{"result":{"nanos":1623300,"millis":1.6233,"status":"passed"},"step":{"background":true,"line":5,"prefix":"*","index":0,"text":"url 'https:\/\/reqres.in\/api\/'"},"stepLog":"22:03:35.844 karate.env system property was: null \n"},{"result":{"nanos":1534100,"millis":1.5341,"status":"passed"},"step":{"line":8,"prefix":"Given","index":0,"text":"path 'users\/3'"}},{"result":{"nanos":1303890700,"millis":1303.8907,"status":"passed"},"step":{"line":9,"prefix":"When","index":1,"text":"method get"},"stepLog":"22:03:36.412 request:\n1 > GET https:\/\/reqres.in\/api\/users\/3\n1 > Host: reqres.in\n1 > Connection: Keep-Alive\n1 > User-Agent: Apache-HttpClient\/4.5.13 (Java\/1.8.0_301)\n1 > Accept-Encoding: gzip,deflate\n\n\n22:03:37.205 response time in milliseconds: 792\n1 < 200\n1 < Date: Sat, 28 Aug 2021 16:33:36 GMT\n1 < Content-Type: application\/json; charset=utf-8\n1 < Transfer-Encoding: chunked\n1 < Connection: keep-alive\n1 < x-powered-by: Express\n1 < access-control-allow-origin: *\n1 < etag: W\/\"112-EeInfgHWtnxhYRnwgZUB667e024\"\n1 < via: 1.1 vegur\n1 < Cache-Control: max-age=14400\n1 < CF-Cache-Status: HIT\n1 < Age: 6339\n1 < Expect-CT: max-age=604800, report-uri=\"https:\/\/report-uri.cloudflare.com\/cdn-cgi\/beacon\/expect-ct\"\n1 < Report-To: {\"endpoints\":[{\"url\":\"https:\\\/\\\/a.nel.cloudflare.com\\\/report\\\/v3?s=igOT%2F5J8M%2FBwFSLWmQIMVTTb19ajGZEP9WXg%2FZmGseTg4HgRpRXqRcMDKoruNggbtNeujknlWq7LidV8OC%2BF1KGV6gJT58phTW9dksh0AkcSMDyrcEXtm8ndc0s%3D\"}],\"group\":\"cf-nel\",\"max_age\":604800}\n1 < NEL: {\"success_fraction\":0,\"report_to\":\"cf-nel\",\"max_age\":604800}\n1 < Vary: Accept-Encoding\n1 < Server: cloudflare\n1 < CF-RAY: 685ef13b4d470df5-BOM\n1 < alt-svc: h3-27=\":443\"; ma=86400, h3-28=\":443\"; ma=86400, h3-29=\":443\"; ma=86400, h3=\":443\"; ma=86400\n{\"data\":{\"id\":3,\"email\":\"emma.wong@reqres.in\",\"first_name\":\"Emma\",\"last_name\":\"Wong\",\"avatar\":\"https:\/\/reqres.in\/img\/faces\/3-image.jpg\"},\"support\":{\"url\":\"https:\/\/reqres.in\/#support-heading\",\"text\":\"To keep ReqRes free, contributions towards server costs are appreciated!\"}}\n"},{"result":{"nanos":14600,"millis":0.0146,"status":"passed"},"step":{"line":10,"prefix":"Then","index":2,"text":"status 200"}}],"executorName":"pool-1-thread-2","line":7,"name":"Get the details of user 3","description":"","durationMillis":1307.0627,"startTime":1630168415653,"failed":false,"refId":"[1:7]","endTime":1630168417210,"exampleIndex":-1},{"sectionIndex":1,"stepResults":[{"result":{"nanos":1622900,"millis":1.6229,"status":"passed"},"step":{"background":true,"line":5,"prefix":"*","index":0,"text":"url 'https:\/\/reqres.in\/api\/'"},"stepLog":"22:03:35.843 karate.env system property was: null \n"},{"result":{"nanos":45430600,"millis":45.4306,"status":"passed"},"step":{"endLine":19,"line":13,"prefix":"*","docString":"{\n    \"name\": \"morpheus\",\n    \"job\": \"leader\"\n}","index":0,"text":"def user ="}},{"result":{"nanos":675900,"millis":0.6759,"status":"passed"},"step":{"line":20,"prefix":"Given","index":1,"text":"path 'users'"}},{"result":{"nanos":5515700,"millis":5.5157,"status":"passed"},"step":{"line":21,"prefix":"And","index":2,"text":"request user"}},{"result":{"nanos":1548410800,"millis":1548.4108,"status":"passed"},"step":{"line":22,"prefix":"When","index":3,"text":"method post"},"stepLog":"22:03:36.412 request:\n1 > POST https:\/\/reqres.in\/api\/users\n1 > Content-Type: application\/json; charset=UTF-8\n1 > Content-Length: 34\n1 > Host: reqres.in\n1 > Connection: Keep-Alive\n1 > User-Agent: Apache-HttpClient\/4.5.13 (Java\/1.8.0_301)\n1 > Accept-Encoding: gzip,deflate\n{\"name\":\"morpheus\",\"job\":\"leader\"}\n\n22:03:37.504 response time in milliseconds: 1092\n1 < 201\n1 < Date: Sat, 28 Aug 2021 16:33:36 GMT\n1 < Content-Type: application\/json; charset=utf-8\n1 < Content-Length: 84\n1 < Connection: keep-alive\n1 < x-powered-by: Express\n1 < access-control-allow-origin: *\n1 < etag: W\/\"54-kmr03Tk3nfACkYl0ZYv6\/Pm4dBo\"\n1 < via: 1.1 vegur\n1 < CF-Cache-Status: DYNAMIC\n1 < Expect-CT: max-age=604800, report-uri=\"https:\/\/report-uri.cloudflare.com\/cdn-cgi\/beacon\/expect-ct\"\n1 < Report-To: {\"endpoints\":[{\"url\":\"https:\\\/\\\/a.nel.cloudflare.com\\\/report\\\/v3?s=vSrO9tf5%2BqNDPxKkYLONnyDd2OjgmNbNLDYIkMmmaCucxOgOaWTajuUxgYI0o2W10sJSBqZxtG0P59vdqypOIuxqc8KZSMZWdIx8dinK9zpCBz8q3OhoKBlRadY%3D\"}],\"group\":\"cf-nel\",\"max_age\":604800}\n1 < NEL: {\"success_fraction\":0,\"report_to\":\"cf-nel\",\"max_age\":604800}\n1 < Server: cloudflare\n1 < CF-RAY: 685ef13b38416979-BOM\n1 < alt-svc: h3-27=\":443\"; ma=86400, h3-28=\":443\"; ma=86400, h3-29=\":443\"; ma=86400, h3=\":443\"; ma=86400\n{\"name\":\"morpheus\",\"job\":\"leader\",\"id\":\"736\",\"createdAt\":\"2021-08-28T16:33:36.776Z\"}\n"},{"result":{"nanos":20900,"millis":0.0209,"status":"passed"},"step":{"line":23,"prefix":"Then","index":4,"text":"status 201"}}],"executorName":"pool-1-thread-3","line":12,"name":"Create an user","description":"","durationMillis":1601.6768,"startTime":1630168415653,"failed":false,"refId":"[2:12]","endTime":1630168417505,"exampleIndex":-1},{"sectionIndex":2,"stepResults":[{"result":{"nanos":1622900,"millis":1.6229,"status":"passed"},"step":{"background":true,"line":5,"prefix":"*","index":0,"text":"url 'https:\/\/reqres.in\/api\/'"},"stepLog":"22:03:35.843 karate.env system property was: null \n"},{"result":{"nanos":45427700,"millis":45.4277,"status":"passed"},"step":{"endLine":32,"line":26,"prefix":"*","docString":"{\n    \"name\": \"Johnny Sins\",\n    \"job\": \"Porn star\"\n}","index":0,"text":"def user2 ="}},{"result":{"nanos":682700,"millis":0.6827,"status":"passed"},"step":{"line":33,"prefix":"Given","index":1,"text":"path 'users'"}},{"result":{"nanos":5514600,"millis":5.5146,"status":"passed"},"step":{"line":34,"prefix":"And","index":2,"text":"request user2"}},{"result":{"nanos":1546921200,"millis":1546.9212,"status":"passed"},"step":{"line":35,"prefix":"When","index":3,"text":"method post"},"stepLog":"22:03:36.412 request:\n1 > POST https:\/\/reqres.in\/api\/users\n1 > Content-Type: application\/json; charset=UTF-8\n1 > Content-Length: 40\n1 > Host: reqres.in\n1 > Connection: Keep-Alive\n1 > User-Agent: Apache-HttpClient\/4.5.13 (Java\/1.8.0_301)\n1 > Accept-Encoding: gzip,deflate\n{\"name\":\"Johnny Sins\",\"job\":\"Porn star\"}\n\n22:03:37.503 response time in milliseconds: 1090\n1 < 201\n1 < Date: Sat, 28 Aug 2021 16:33:36 GMT\n1 < Content-Type: application\/json; charset=utf-8\n1 < Content-Length: 89\n1 < Connection: keep-alive\n1 < x-powered-by: Express\n1 < access-control-allow-origin: *\n1 < etag: W\/\"59-OJ8zKqaw8Su8bHe3t1orAtL7zbU\"\n1 < via: 1.1 vegur\n1 < CF-Cache-Status: DYNAMIC\n1 < Expect-CT: max-age=604800, report-uri=\"https:\/\/report-uri.cloudflare.com\/cdn-cgi\/beacon\/expect-ct\"\n1 < Report-To: {\"endpoints\":[{\"url\":\"https:\\\/\\\/a.nel.cloudflare.com\\\/report\\\/v3?s=tDs%2Byw09JiYLNCcIuhnznkzy9hyd6hOOF5GfuhSRaID7i0C97YRJ3FpXl8IOom%2B2MU5eTGxbyoElkeNVobWwz3Tjmxdxy2h4yFGIth%2BeNc6g40fiquiln0qogXk%3D\"}],\"group\":\"cf-nel\",\"max_age\":604800}\n1 < NEL: {\"success_fraction\":0,\"report_to\":\"cf-nel\",\"max_age\":604800}\n1 < Server: cloudflare\n1 < CF-RAY: 685ef13b593e0eec-BOM\n1 < alt-svc: h3-27=\":443\"; ma=86400, h3-28=\":443\"; ma=86400, h3-29=\":443\"; ma=86400, h3=\":443\"; ma=86400\n{\"name\":\"Johnny Sins\",\"job\":\"Porn star\",\"id\":\"91\",\"createdAt\":\"2021-08-28T16:33:36.784Z\"}\n"},{"result":{"nanos":16000,"millis":0.016,"status":"passed"},"step":{"line":36,"prefix":"Then","index":4,"text":"status 201"}},{"result":{"nanos":1931400,"millis":1.9314,"status":"passed"},"step":{"line":37,"prefix":"Then","index":5,"text":"match response == \"#object\""}},{"result":{"nanos":1281800,"millis":1.2818,"status":"passed"},"step":{"line":38,"prefix":"Then","index":6,"text":"match response.name == \"Johnny Sins\""}}],"executorName":"pool-1-thread-4","line":25,"name":"Create another user","description":"","durationMillis":1603.3983,"startTime":1630168415653,"failed":false,"refId":"[3:25]","endTime":1630168417507,"exampleIndex":-1},{"sectionIndex":3,"stepResults":[{"result":{"nanos":1622900,"millis":1.6229,"status":"passed"},"step":{"background":true,"line":5,"prefix":"*","index":0,"text":"url 'https:\/\/reqres.in\/api\/'"},"stepLog":"22:03:35.843 karate.env system property was: null \n"},{"result":{"nanos":1565500,"millis":1.5655,"status":"passed"},"step":{"line":41,"prefix":"Given","index":0,"text":"path 'users\/'"}},{"result":{"nanos":2024000,"millis":2.024,"status":"passed"},"step":{"line":42,"prefix":"And","index":1,"text":"param page = 2"}},{"result":{"nanos":1299608000,"millis":1299.608,"status":"passed"},"step":{"line":43,"prefix":"When","index":2,"text":"method get"},"stepLog":"22:03:36.412 request:\n1 > GET https:\/\/reqres.in\/api\/users?page=2\n1 > Host: reqres.in\n1 > Connection: Keep-Alive\n1 > User-Agent: Apache-HttpClient\/4.5.13 (Java\/1.8.0_301)\n1 > Accept-Encoding: gzip,deflate\n\n\n22:03:37.206 response time in milliseconds: 794\n1 < 200\n1 < Date: Sat, 28 Aug 2021 16:33:36 GMT\n1 < Content-Type: application\/json; charset=utf-8\n1 < Transfer-Encoding: chunked\n1 < Connection: keep-alive\n1 < x-powered-by: Express\n1 < access-control-allow-origin: *\n1 < etag: W\/\"406-ut0vzoCuidvyMf8arZpMpJ6ZRDw\"\n1 < via: 1.1 vegur\n1 < Cache-Control: max-age=14400\n1 < CF-Cache-Status: HIT\n1 < Age: 3702\n1 < Expect-CT: max-age=604800, report-uri=\"https:\/\/report-uri.cloudflare.com\/cdn-cgi\/beacon\/expect-ct\"\n1 < Report-To: {\"endpoints\":[{\"url\":\"https:\\\/\\\/a.nel.cloudflare.com\\\/report\\\/v3?s=QwSF6SDe7DL90vCNLtSGNDVgRRIZiJdz8o7YDvTWZqpkD9cXXAzrVn6CEPp6%2BnMKLyROnj2%2FFLFFm%2Bj4MViUNJ07AJYNK1JMV2i9djDtpkDEMxDFBHE6lWDF%2BLE%3D\"}],\"group\":\"cf-nel\",\"max_age\":604800}\n1 < NEL: {\"success_fraction\":0,\"report_to\":\"cf-nel\",\"max_age\":604800}\n1 < Vary: Accept-Encoding\n1 < Server: cloudflare\n1 < CF-RAY: 685ef13b6a112e3a-BOM\n1 < alt-svc: h3-27=\":443\"; ma=86400, h3-28=\":443\"; ma=86400, h3-29=\":443\"; ma=86400, h3=\":443\"; ma=86400\n{\"page\":2,\"per_page\":6,\"total\":12,\"total_pages\":2,\"data\":[{\"id\":7,\"email\":\"michael.lawson@reqres.in\",\"first_name\":\"Michael\",\"last_name\":\"Lawson\",\"avatar\":\"https:\/\/reqres.in\/img\/faces\/7-image.jpg\"},{\"id\":8,\"email\":\"lindsay.ferguson@reqres.in\",\"first_name\":\"Lindsay\",\"last_name\":\"Ferguson\",\"avatar\":\"https:\/\/reqres.in\/img\/faces\/8-image.jpg\"},{\"id\":9,\"email\":\"tobias.funke@reqres.in\",\"first_name\":\"Tobias\",\"last_name\":\"Funke\",\"avatar\":\"https:\/\/reqres.in\/img\/faces\/9-image.jpg\"},{\"id\":10,\"email\":\"byron.fields@reqres.in\",\"first_name\":\"Byron\",\"last_name\":\"Fields\",\"avatar\":\"https:\/\/reqres.in\/img\/faces\/10-image.jpg\"},{\"id\":11,\"email\":\"george.edwards@reqres.in\",\"first_name\":\"George\",\"last_name\":\"Edwards\",\"avatar\":\"https:\/\/reqres.in\/img\/faces\/11-image.jpg\"},{\"id\":12,\"email\":\"rachel.howell@reqres.in\",\"first_name\":\"Rachel\",\"last_name\":\"Howell\",\"avatar\":\"https:\/\/reqres.in\/img\/faces\/12-image.jpg\"}],\"support\":{\"url\":\"https:\/\/reqres.in\/#support-heading\",\"text\":\"To keep ReqRes free, contributions towards server costs are appreciated!\"}}\n"},{"result":{"nanos":23000,"millis":0.023,"status":"passed"},"step":{"line":44,"prefix":"Then","index":3,"text":"status 200"}},{"result":{"nanos":2072600,"millis":2.0726,"status":"passed"},"step":{"line":45,"prefix":"Then","index":4,"text":"match response == \"#object\""}},{"result":{"nanos":3196000,"millis":3.196,"status":"passed"},"step":{"line":46,"prefix":"Then","index":5,"text":"match response.page == 2"}}],"executorName":"pool-1-thread-5","line":40,"name":"Get User details of id 2","description":"","durationMillis":1310.112,"startTime":1630168415653,"failed":false,"refId":"[4:40]","endTime":1630168417214,"exampleIndex":-1}],"callDepth":0,"name":"Get the details of user 3","description":"","resultDate":"2021-08-28 10:03:37 PM","durationMillis":5822.2498,"passedCount":4}